Learning Quarto
…
Code

df_all %>%
    separate_rows(Technology, sep=",")  %>%
    mutate_at(vars(Technology), str_trim)

# A tibble: 16,128 × 52
   Title Link  Authors Month_year Content_type Author `Publication Date` Journal
   <chr> <chr> <chr>   <chr>      <chr>        <chr>  <chr>              <chr>  
 1 "WIL… /pub… "Kuru,… November … "Journal Ar… Kuru,… November 30, 2023  Expert…
 2 "Win… /pub… "Moust… September… "Journal Ar… Moust… September 20, 2023 Scienc…
 3 "Win… /pub… "Moust… September… "Journal Ar… Moust… September 20, 2023 Scienc…
 4 "A r… /pub… "Ma, C… September… "Journal Ar… Ma, C… September 15, 2023 Journa…
 5 "Int… /pub… "Gkeka… September… "Journal Ar… Gkeka… September 10, 2023 Journa…
 6 "Int… /pub… "Gkeka… September… "Journal Ar… Gkeka… September 10, 2023 Journa…
 7 "Co-… /pub… "Tursc… September… "Journal Ar… Tursc… September 1, 2023  Enviro…
 8 "Co-… /pub… "Tursc… September… "Journal Ar… Tursc… September 1, 2023  Enviro…
 9 "Tow… /pub… "Weiss… September… "Journal Ar… Weiss… September 1, 2023  Ocean …
10 "Tow… /pub… "Weiss… September… "Journal Ar… Weiss… September 1, 2023  Ocean …
# ℹ 16,118 more rows
# ℹ 44 more variables: Volume <chr>, Pages <chr>, Publisher <chr>,
#   Affiliation <chr>, Technology <chr>, Receptor <chr>, Website <chr>,
#   Attachment <chr>, Citation <chr>, Abstract <chr>, Stressor <chr>,
#   Issue <chr>, `Thesis Type` <chr>, `Academic Department` <chr>,
#   `Place Published` <chr>, `Sponsoring Organization` <chr>,
#   `Document Number` <chr>, `Event Name` <chr>, `Event Location` <chr>, …
…
